<?xml version="1.0" encoding="UTF-8"?>
<testsuite xmlns:xsi="http://www.w3.org/2001/XMLSchema-instance" xsi:noNamespaceSchemaLocation="https://maven.apache.org/surefire/maven-surefire-plugin/xsd/surefire-test-report.xsd" name="com.example.demo.DemoApplicationTests" time="0.484" tests="1" errors="1" skipped="0" failures="0">
  <properties>
    <property name="gopherProxySet" value="false"/>
    <property name="awt.toolkit" value="sun.lwawt.macosx.LWCToolkit"/>
    <property name="file.encoding.pkg" value="sun.io"/>
    <property name="java.specification.version" value="1.8"/>
    <property name="sun.cpu.isalist" value=""/>
    <property name="sun.jnu.encoding" value="UTF-8"/>
    <property name="java.class.path" value="/Users/huajuan/program/code/wq_rb_code/reg_sub/springBoot_Mybatis/Springboot_Mybatis/target/test-classes:/Users/huajuan/program/code/wq_rb_code/reg_sub/springBoot_Mybatis/Springboot_Mybatis/target/classes:/Users/huajuan/develop_tool/wq_repository/org/springframework/boot/spring-boot-starter-jdbc/2.0.5.RELEASE/spring-boot-starter-jdbc-2.0.5.RELEASE.jar:/Users/huajuan/develop_tool/wq_repository/org/springframework/boot/spring-boot-starter/2.0.5.RELEASE/spring-boot-starter-2.0.5.RELEASE.jar:/Users/huajuan/develop_tool/wq_repository/org/springframework/boot/spring-boot/2.0.5.RELEASE/spring-boot-2.0.5.RELEASE.jar:/Users/huajuan/develop_tool/wq_repository/org/springframework/boot/spring-boot-autoconfigure/2.0.5.RELEASE/spring-boot-autoconfigure-2.0.5.RELEASE.jar:/Users/huajuan/develop_tool/wq_repository/org/springframework/boot/spring-boot-starter-logging/2.0.5.RELEASE/spring-boot-starter-logging-2.0.5.RELEASE.jar:/Users/huajuan/develop_tool/wq_repository/ch/qos/logback/logback-classic/1.2.3/logback-classic-1.2.3.jar:/Users/huajuan/develop_tool/wq_repository/ch/qos/logback/logback-core/1.2.3/logback-core-1.2.3.jar:/Users/huajuan/develop_tool/wq_repository/org/apache/logging/log4j/log4j-to-slf4j/2.10.0/log4j-to-slf4j-2.10.0.jar:/Users/huajuan/develop_tool/wq_repository/org/apache/logging/log4j/log4j-api/2.10.0/log4j-api-2.10.0.jar:/Users/huajuan/develop_tool/wq_repository/org/slf4j/jul-to-slf4j/1.7.25/jul-to-slf4j-1.7.25.jar:/Users/huajuan/develop_tool/wq_repository/javax/annotation/javax.annotation-api/1.3.2/javax.annotation-api-1.3.2.jar:/Users/huajuan/develop_tool/wq_repository/org/yaml/snakeyaml/1.19/snakeyaml-1.19.jar:/Users/huajuan/develop_tool/wq_repository/com/zaxxer/HikariCP/2.7.9/HikariCP-2.7.9.jar:/Users/huajuan/develop_tool/wq_repository/org/slf4j/slf4j-api/1.7.25/slf4j-api-1.7.25.jar:/Users/huajuan/develop_tool/wq_repository/org/springframework/spring-jdbc/5.0.9.RELEASE/spring-jdbc-5.0.9.RELEASE.jar:/Users/huajuan/develop_tool/wq_repository/org/springframework/spring-beans/5.0.9.RELEASE/spring-beans-5.0.9.RELEASE.jar:/Users/huajuan/develop_tool/wq_repository/org/springframework/boot/spring-boot-starter-web/2.0.5.RELEASE/spring-boot-starter-web-2.0.5.RELEASE.jar:/Users/huajuan/develop_tool/wq_repository/org/springframework/boot/spring-boot-starter-json/2.0.5.RELEASE/spring-boot-starter-json-2.0.5.RELEASE.jar:/Users/huajuan/develop_tool/wq_repository/com/fasterxml/jackson/core/jackson-databind/2.9.6/jackson-databind-2.9.6.jar:/Users/huajuan/develop_tool/wq_repository/com/fasterxml/jackson/core/jackson-annotations/2.9.0/jackson-annotations-2.9.0.jar:/Users/huajuan/develop_tool/wq_repository/com/fasterxml/jackson/core/jackson-core/2.9.6/jackson-core-2.9.6.jar:/Users/huajuan/develop_tool/wq_repository/com/fasterxml/jackson/datatype/jackson-datatype-jdk8/2.9.6/jackson-datatype-jdk8-2.9.6.jar:/Users/huajuan/develop_tool/wq_repository/com/fasterxml/jackson/datatype/jackson-datatype-jsr310/2.9.6/jackson-datatype-jsr310-2.9.6.jar:/Users/huajuan/develop_tool/wq_repository/com/fasterxml/jackson/module/jackson-module-parameter-names/2.9.6/jackson-module-parameter-names-2.9.6.jar:/Users/huajuan/develop_tool/wq_repository/org/springframework/boot/spring-boot-starter-tomcat/2.0.5.RELEASE/spring-boot-starter-tomcat-2.0.5.RELEASE.jar:/Users/huajuan/develop_tool/wq_repository/org/apache/tomcat/embed/tomcat-embed-core/8.5.34/tomcat-embed-core-8.5.34.jar:/Users/huajuan/develop_tool/wq_repository/org/apache/tomcat/embed/tomcat-embed-el/8.5.34/tomcat-embed-el-8.5.34.jar:/Users/huajuan/develop_tool/wq_repository/org/apache/tomcat/embed/tomcat-embed-websocket/8.5.34/tomcat-embed-websocket-8.5.34.jar:/Users/huajuan/develop_tool/wq_repository/org/hibernate/validator/hibernate-validator/6.0.12.Final/hibernate-validator-6.0.12.Final.jar:/Users/huajuan/develop_tool/wq_repository/javax/validation/validation-api/2.0.1.Final/validation-api-2.0.1.Final.jar:/Users/huajuan/develop_tool/wq_repository/org/jboss/logging/jboss-logging/3.3.2.Final/jboss-logging-3.3.2.Final.jar:/Users/huajuan/develop_tool/wq_repository/com/fasterxml/classmate/1.3.4/classmate-1.3.4.jar:/Users/huajuan/develop_tool/wq_repository/org/springframework/spring-web/5.0.9.RELEASE/spring-web-5.0.9.RELEASE.jar:/Users/huajuan/develop_tool/wq_repository/org/springframework/spring-webmvc/5.0.9.RELEASE/spring-webmvc-5.0.9.RELEASE.jar:/Users/huajuan/develop_tool/wq_repository/org/springframework/spring-aop/5.0.9.RELEASE/spring-aop-5.0.9.RELEASE.jar:/Users/huajuan/develop_tool/wq_repository/org/springframework/spring-context/5.0.9.RELEASE/spring-context-5.0.9.RELEASE.jar:/Users/huajuan/develop_tool/wq_repository/org/springframework/spring-expression/5.0.9.RELEASE/spring-expression-5.0.9.RELEASE.jar:/Users/huajuan/develop_tool/wq_repository/org/mybatis/spring/boot/mybatis-spring-boot-starter/1.3.2/mybatis-spring-boot-starter-1.3.2.jar:/Users/huajuan/develop_tool/wq_repository/org/mybatis/spring/boot/mybatis-spring-boot-autoconfigure/1.3.2/mybatis-spring-boot-autoconfigure-1.3.2.jar:/Users/huajuan/develop_tool/wq_repository/org/mybatis/mybatis/3.4.6/mybatis-3.4.6.jar:/Users/huajuan/develop_tool/wq_repository/org/mybatis/mybatis-spring/1.3.2/mybatis-spring-1.3.2.jar:/Users/huajuan/develop_tool/wq_repository/mysql/mysql-connector-java/8.0.15/mysql-connector-java-8.0.15.jar:/Users/huajuan/develop_tool/wq_repository/com/google/protobuf/protobuf-java/3.6.1/protobuf-java-3.6.1.jar:/Users/huajuan/develop_tool/wq_repository/org/springframework/boot/spring-boot-starter-test/2.0.5.RELEASE/spring-boot-starter-test-2.0.5.RELEASE.jar:/Users/huajuan/develop_tool/wq_repository/org/springframework/boot/spring-boot-test/2.0.5.RELEASE/spring-boot-test-2.0.5.RELEASE.jar:/Users/huajuan/develop_tool/wq_repository/org/springframework/boot/spring-boot-test-autoconfigure/2.0.5.RELEASE/spring-boot-test-autoconfigure-2.0.5.RELEASE.jar:/Users/huajuan/develop_tool/wq_repository/com/jayway/jsonpath/json-path/2.4.0/json-path-2.4.0.jar:/Users/huajuan/develop_tool/wq_repository/net/minidev/json-smart/2.3/json-smart-2.3.jar:/Users/huajuan/develop_tool/wq_repository/net/minidev/accessors-smart/1.2/accessors-smart-1.2.jar:/Users/huajuan/develop_tool/wq_repository/org/ow2/asm/asm/5.0.4/asm-5.0.4.jar:/Users/huajuan/develop_tool/wq_repository/junit/junit/4.12/junit-4.12.jar:/Users/huajuan/develop_tool/wq_repository/org/assertj/assertj-core/3.9.1/assertj-core-3.9.1.jar:/Users/huajuan/develop_tool/wq_repository/org/mockito/mockito-core/2.15.0/mockito-core-2.15.0.jar:/Users/huajuan/develop_tool/wq_repository/net/bytebuddy/byte-buddy/1.7.11/byte-buddy-1.7.11.jar:/Users/huajuan/develop_tool/wq_repository/net/bytebuddy/byte-buddy-agent/1.7.11/byte-buddy-agent-1.7.11.jar:/Users/huajuan/develop_tool/wq_repository/org/objenesis/objenesis/2.6/objenesis-2.6.jar:/Users/huajuan/develop_tool/wq_repository/org/hamcrest/hamcrest-core/1.3/hamcrest-core-1.3.jar:/Users/huajuan/develop_tool/wq_repository/org/hamcrest/hamcrest-library/1.3/hamcrest-library-1.3.jar:/Users/huajuan/develop_tool/wq_repository/org/skyscreamer/jsonassert/1.5.0/jsonassert-1.5.0.jar:/Users/huajuan/develop_tool/wq_repository/com/vaadin/external/google/android-json/0.0.20131108.vaadin1/android-json-0.0.20131108.vaadin1.jar:/Users/huajuan/develop_tool/wq_repository/org/springframework/spring-core/5.0.9.RELEASE/spring-core-5.0.9.RELEASE.jar:/Users/huajuan/develop_tool/wq_repository/org/springframework/spring-jcl/5.0.9.RELEASE/spring-jcl-5.0.9.RELEASE.jar:/Users/huajuan/develop_tool/wq_repository/org/springframework/spring-test/5.0.9.RELEASE/spring-test-5.0.9.RELEASE.jar:/Users/huajuan/develop_tool/wq_repository/org/xmlunit/xmlunit-core/2.5.1/xmlunit-core-2.5.1.jar:/Users/huajuan/develop_tool/wq_repository/dom4j/dom4j/1.6.1/dom4j-1.6.1.jar:/Users/huajuan/develop_tool/wq_repository/xml-apis/xml-apis/1.4.01/xml-apis-1.4.01.jar:/Users/huajuan/develop_tool/wq_repository/com/jcraft/jsch/0.1.54/jsch-0.1.54.jar:/Users/huajuan/develop_tool/wq_repository/log4j/log4j/1.2.17/log4j-1.2.17.jar:/Users/huajuan/develop_tool/wq_repository/org/springframework/boot/spring-boot-starter-quartz/2.0.5.RELEASE/spring-boot-starter-quartz-2.0.5.RELEASE.jar:/Users/huajuan/develop_tool/wq_repository/org/springframework/spring-context-support/5.0.9.RELEASE/spring-context-support-5.0.9.RELEASE.jar:/Users/huajuan/develop_tool/wq_repository/org/springframework/spring-tx/5.0.9.RELEASE/spring-tx-5.0.9.RELEASE.jar:/Users/huajuan/develop_tool/wq_repository/org/quartz-scheduler/quartz/2.3.0/quartz-2.3.0.jar:/Users/huajuan/develop_tool/wq_repository/com/mchange/mchange-commons-java/0.2.11/mchange-commons-java-0.2.11.jar:/Users/huajuan/develop_tool/wq_repository/org/projectlombok/lombok/1.16.22/lombok-1.16.22.jar:/Users/huajuan/develop_tool/wq_repository/commons-beanutils/commons-beanutils/1.9.3/commons-beanutils-1.9.3.jar:/Users/huajuan/develop_tool/wq_repository/commons-logging/commons-logging/1.2/commons-logging-1.2.jar:/Users/huajuan/develop_tool/wq_repository/commons-collections/commons-collections/3.2.2/commons-collections-3.2.2.jar:/Users/huajuan/develop_tool/wq_repository/commons-chain/commons-chain/1.2/commons-chain-1.2.jar:/Users/huajuan/develop_tool/wq_repository/org/apache/commons/commons-lang3/3.7/commons-lang3-3.7.jar:/Users/huajuan/develop_tool/wq_repository/com/sun/mail/javax.mail/1.5.6/javax.mail-1.5.6.jar:/Users/huajuan/develop_tool/wq_repository/javax/activation/activation/1.1/activation-1.1.jar:"/>
    <property name="java.vm.vendor" value="Oracle Corporation"/>
    <property name="sun.arch.data.model" value="64"/>
    <property name="java.vendor.url" value="http://java.oracle.com/"/>
    <property name="user.timezone" value=""/>
    <property name="java.vm.specification.version" value="1.8"/>
    <property name="os.name" value="Mac OS X"/>
    <property name="user.country" value="CN"/>
    <property name="sun.java.launcher" value="SUN_STANDARD"/>
    <property name="sun.boot.library.path" value="/Library/Java/JavaVirtualMachines/jdk1.8.0_121.jdk/Contents/Home/jre/lib"/>
    <property name="sun.java.command" value="/Users/huajuan/program/code/wq_rb_code/reg_sub/springBoot_Mybatis/Springboot_Mybatis/target/surefire/surefirebooter7710139619721501333.jar /Users/huajuan/program/code/wq_rb_code/reg_sub/springBoot_Mybatis/Springboot_Mybatis/target/surefire 2021-03-03T18-51-11_741-jvmRun1 surefire2364494686060824286tmp surefire_03744013847909135313tmp"/>
    <property name="surefire.test.class.path" value="/Users/huajuan/program/code/wq_rb_code/reg_sub/springBoot_Mybatis/Springboot_Mybatis/target/test-classes:/Users/huajuan/program/code/wq_rb_code/reg_sub/springBoot_Mybatis/Springboot_Mybatis/target/classes:/Users/huajuan/develop_tool/wq_repository/org/springframework/boot/spring-boot-starter-jdbc/2.0.5.RELEASE/spring-boot-starter-jdbc-2.0.5.RELEASE.jar:/Users/huajuan/develop_tool/wq_repository/org/springframework/boot/spring-boot-starter/2.0.5.RELEASE/spring-boot-starter-2.0.5.RELEASE.jar:/Users/huajuan/develop_tool/wq_repository/org/springframework/boot/spring-boot/2.0.5.RELEASE/spring-boot-2.0.5.RELEASE.jar:/Users/huajuan/develop_tool/wq_repository/org/springframework/boot/spring-boot-autoconfigure/2.0.5.RELEASE/spring-boot-autoconfigure-2.0.5.RELEASE.jar:/Users/huajuan/develop_tool/wq_repository/org/springframework/boot/spring-boot-starter-logging/2.0.5.RELEASE/spring-boot-starter-logging-2.0.5.RELEASE.jar:/Users/huajuan/develop_tool/wq_repository/ch/qos/logback/logback-classic/1.2.3/logback-classic-1.2.3.jar:/Users/huajuan/develop_tool/wq_repository/ch/qos/logback/logback-core/1.2.3/logback-core-1.2.3.jar:/Users/huajuan/develop_tool/wq_repository/org/apache/logging/log4j/log4j-to-slf4j/2.10.0/log4j-to-slf4j-2.10.0.jar:/Users/huajuan/develop_tool/wq_repository/org/apache/logging/log4j/log4j-api/2.10.0/log4j-api-2.10.0.jar:/Users/huajuan/develop_tool/wq_repository/org/slf4j/jul-to-slf4j/1.7.25/jul-to-slf4j-1.7.25.jar:/Users/huajuan/develop_tool/wq_repository/javax/annotation/javax.annotation-api/1.3.2/javax.annotation-api-1.3.2.jar:/Users/huajuan/develop_tool/wq_repository/org/yaml/snakeyaml/1.19/snakeyaml-1.19.jar:/Users/huajuan/develop_tool/wq_repository/com/zaxxer/HikariCP/2.7.9/HikariCP-2.7.9.jar:/Users/huajuan/develop_tool/wq_repository/org/slf4j/slf4j-api/1.7.25/slf4j-api-1.7.25.jar:/Users/huajuan/develop_tool/wq_repository/org/springframework/spring-jdbc/5.0.9.RELEASE/spring-jdbc-5.0.9.RELEASE.jar:/Users/huajuan/develop_tool/wq_repository/org/springframework/spring-beans/5.0.9.RELEASE/spring-beans-5.0.9.RELEASE.jar:/Users/huajuan/develop_tool/wq_repository/org/springframework/boot/spring-boot-starter-web/2.0.5.RELEASE/spring-boot-starter-web-2.0.5.RELEASE.jar:/Users/huajuan/develop_tool/wq_repository/org/springframework/boot/spring-boot-starter-json/2.0.5.RELEASE/spring-boot-starter-json-2.0.5.RELEASE.jar:/Users/huajuan/develop_tool/wq_repository/com/fasterxml/jackson/core/jackson-databind/2.9.6/jackson-databind-2.9.6.jar:/Users/huajuan/develop_tool/wq_repository/com/fasterxml/jackson/core/jackson-annotations/2.9.0/jackson-annotations-2.9.0.jar:/Users/huajuan/develop_tool/wq_repository/com/fasterxml/jackson/core/jackson-core/2.9.6/jackson-core-2.9.6.jar:/Users/huajuan/develop_tool/wq_repository/com/fasterxml/jackson/datatype/jackson-datatype-jdk8/2.9.6/jackson-datatype-jdk8-2.9.6.jar:/Users/huajuan/develop_tool/wq_repository/com/fasterxml/jackson/datatype/jackson-datatype-jsr310/2.9.6/jackson-datatype-jsr310-2.9.6.jar:/Users/huajuan/develop_tool/wq_repository/com/fasterxml/jackson/module/jackson-module-parameter-names/2.9.6/jackson-module-parameter-names-2.9.6.jar:/Users/huajuan/develop_tool/wq_repository/org/springframework/boot/spring-boot-starter-tomcat/2.0.5.RELEASE/spring-boot-starter-tomcat-2.0.5.RELEASE.jar:/Users/huajuan/develop_tool/wq_repository/org/apache/tomcat/embed/tomcat-embed-core/8.5.34/tomcat-embed-core-8.5.34.jar:/Users/huajuan/develop_tool/wq_repository/org/apache/tomcat/embed/tomcat-embed-el/8.5.34/tomcat-embed-el-8.5.34.jar:/Users/huajuan/develop_tool/wq_repository/org/apache/tomcat/embed/tomcat-embed-websocket/8.5.34/tomcat-embed-websocket-8.5.34.jar:/Users/huajuan/develop_tool/wq_repository/org/hibernate/validator/hibernate-validator/6.0.12.Final/hibernate-validator-6.0.12.Final.jar:/Users/huajuan/develop_tool/wq_repository/javax/validation/validation-api/2.0.1.Final/validation-api-2.0.1.Final.jar:/Users/huajuan/develop_tool/wq_repository/org/jboss/logging/jboss-logging/3.3.2.Final/jboss-logging-3.3.2.Final.jar:/Users/huajuan/develop_tool/wq_repository/com/fasterxml/classmate/1.3.4/classmate-1.3.4.jar:/Users/huajuan/develop_tool/wq_repository/org/springframework/spring-web/5.0.9.RELEASE/spring-web-5.0.9.RELEASE.jar:/Users/huajuan/develop_tool/wq_repository/org/springframework/spring-webmvc/5.0.9.RELEASE/spring-webmvc-5.0.9.RELEASE.jar:/Users/huajuan/develop_tool/wq_repository/org/springframework/spring-aop/5.0.9.RELEASE/spring-aop-5.0.9.RELEASE.jar:/Users/huajuan/develop_tool/wq_repository/org/springframework/spring-context/5.0.9.RELEASE/spring-context-5.0.9.RELEASE.jar:/Users/huajuan/develop_tool/wq_repository/org/springframework/spring-expression/5.0.9.RELEASE/spring-expression-5.0.9.RELEASE.jar:/Users/huajuan/develop_tool/wq_repository/org/mybatis/spring/boot/mybatis-spring-boot-starter/1.3.2/mybatis-spring-boot-starter-1.3.2.jar:/Users/huajuan/develop_tool/wq_repository/org/mybatis/spring/boot/mybatis-spring-boot-autoconfigure/1.3.2/mybatis-spring-boot-autoconfigure-1.3.2.jar:/Users/huajuan/develop_tool/wq_repository/org/mybatis/mybatis/3.4.6/mybatis-3.4.6.jar:/Users/huajuan/develop_tool/wq_repository/org/mybatis/mybatis-spring/1.3.2/mybatis-spring-1.3.2.jar:/Users/huajuan/develop_tool/wq_repository/mysql/mysql-connector-java/8.0.15/mysql-connector-java-8.0.15.jar:/Users/huajuan/develop_tool/wq_repository/com/google/protobuf/protobuf-java/3.6.1/protobuf-java-3.6.1.jar:/Users/huajuan/develop_tool/wq_repository/org/springframework/boot/spring-boot-starter-test/2.0.5.RELEASE/spring-boot-starter-test-2.0.5.RELEASE.jar:/Users/huajuan/develop_tool/wq_repository/org/springframework/boot/spring-boot-test/2.0.5.RELEASE/spring-boot-test-2.0.5.RELEASE.jar:/Users/huajuan/develop_tool/wq_repository/org/springframework/boot/spring-boot-test-autoconfigure/2.0.5.RELEASE/spring-boot-test-autoconfigure-2.0.5.RELEASE.jar:/Users/huajuan/develop_tool/wq_repository/com/jayway/jsonpath/json-path/2.4.0/json-path-2.4.0.jar:/Users/huajuan/develop_tool/wq_repository/net/minidev/json-smart/2.3/json-smart-2.3.jar:/Users/huajuan/develop_tool/wq_repository/net/minidev/accessors-smart/1.2/accessors-smart-1.2.jar:/Users/huajuan/develop_tool/wq_repository/org/ow2/asm/asm/5.0.4/asm-5.0.4.jar:/Users/huajuan/develop_tool/wq_repository/junit/junit/4.12/junit-4.12.jar:/Users/huajuan/develop_tool/wq_repository/org/assertj/assertj-core/3.9.1/assertj-core-3.9.1.jar:/Users/huajuan/develop_tool/wq_repository/org/mockito/mockito-core/2.15.0/mockito-core-2.15.0.jar:/Users/huajuan/develop_tool/wq_repository/net/bytebuddy/byte-buddy/1.7.11/byte-buddy-1.7.11.jar:/Users/huajuan/develop_tool/wq_repository/net/bytebuddy/byte-buddy-agent/1.7.11/byte-buddy-agent-1.7.11.jar:/Users/huajuan/develop_tool/wq_repository/org/objenesis/objenesis/2.6/objenesis-2.6.jar:/Users/huajuan/develop_tool/wq_repository/org/hamcrest/hamcrest-core/1.3/hamcrest-core-1.3.jar:/Users/huajuan/develop_tool/wq_repository/org/hamcrest/hamcrest-library/1.3/hamcrest-library-1.3.jar:/Users/huajuan/develop_tool/wq_repository/org/skyscreamer/jsonassert/1.5.0/jsonassert-1.5.0.jar:/Users/huajuan/develop_tool/wq_repository/com/vaadin/external/google/android-json/0.0.20131108.vaadin1/android-json-0.0.20131108.vaadin1.jar:/Users/huajuan/develop_tool/wq_repository/org/springframework/spring-core/5.0.9.RELEASE/spring-core-5.0.9.RELEASE.jar:/Users/huajuan/develop_tool/wq_repository/org/springframework/spring-jcl/5.0.9.RELEASE/spring-jcl-5.0.9.RELEASE.jar:/Users/huajuan/develop_tool/wq_repository/org/springframework/spring-test/5.0.9.RELEASE/spring-test-5.0.9.RELEASE.jar:/Users/huajuan/develop_tool/wq_repository/org/xmlunit/xmlunit-core/2.5.1/xmlunit-core-2.5.1.jar:/Users/huajuan/develop_tool/wq_repository/dom4j/dom4j/1.6.1/dom4j-1.6.1.jar:/Users/huajuan/develop_tool/wq_repository/xml-apis/xml-apis/1.4.01/xml-apis-1.4.01.jar:/Users/huajuan/develop_tool/wq_repository/com/jcraft/jsch/0.1.54/jsch-0.1.54.jar:/Users/huajuan/develop_tool/wq_repository/log4j/log4j/1.2.17/log4j-1.2.17.jar:/Users/huajuan/develop_tool/wq_repository/org/springframework/boot/spring-boot-starter-quartz/2.0.5.RELEASE/spring-boot-starter-quartz-2.0.5.RELEASE.jar:/Users/huajuan/develop_tool/wq_repository/org/springframework/spring-context-support/5.0.9.RELEASE/spring-context-support-5.0.9.RELEASE.jar:/Users/huajuan/develop_tool/wq_repository/org/springframework/spring-tx/5.0.9.RELEASE/spring-tx-5.0.9.RELEASE.jar:/Users/huajuan/develop_tool/wq_repository/org/quartz-scheduler/quartz/2.3.0/quartz-2.3.0.jar:/Users/huajuan/develop_tool/wq_repository/com/mchange/mchange-commons-java/0.2.11/mchange-commons-java-0.2.11.jar:/Users/huajuan/develop_tool/wq_repository/org/projectlombok/lombok/1.16.22/lombok-1.16.22.jar:/Users/huajuan/develop_tool/wq_repository/commons-beanutils/commons-beanutils/1.9.3/commons-beanutils-1.9.3.jar:/Users/huajuan/develop_tool/wq_repository/commons-logging/commons-logging/1.2/commons-logging-1.2.jar:/Users/huajuan/develop_tool/wq_repository/commons-collections/commons-collections/3.2.2/commons-collections-3.2.2.jar:/Users/huajuan/develop_tool/wq_repository/commons-chain/commons-chain/1.2/commons-chain-1.2.jar:/Users/huajuan/develop_tool/wq_repository/org/apache/commons/commons-lang3/3.7/commons-lang3-3.7.jar:/Users/huajuan/develop_tool/wq_repository/com/sun/mail/javax.mail/1.5.6/javax.mail-1.5.6.jar:/Users/huajuan/develop_tool/wq_repository/javax/activation/activation/1.1/activation-1.1.jar:"/>
    <property name="sun.cpu.endian" value="little"/>
    <property name="user.home" value="/Users/huajuan"/>
    <property name="user.language" value="zh"/>
    <property name="java.specification.vendor" value="Oracle Corporation"/>
    <property name="java.home" value="/Library/Java/JavaVirtualMachines/jdk1.8.0_121.jdk/Contents/Home/jre"/>
    <property name="basedir" value="/Users/huajuan/program/code/wq_rb_code/reg_sub/springBoot_Mybatis/Springboot_Mybatis"/>
    <property name="file.separator" value="/"/>
    <property name="line.separator" value="&#10;"/>
    <property name="java.vm.specification.vendor" value="Oracle Corporation"/>
    <property name="java.specification.name" value="Java Platform API Specification"/>
    <property name="java.awt.graphicsenv" value="sun.awt.CGraphicsEnvironment"/>
    <property name="surefire.real.class.path" value="/Users/huajuan/program/code/wq_rb_code/reg_sub/springBoot_Mybatis/Springboot_Mybatis/target/surefire/surefirebooter7710139619721501333.jar"/>
    <property name="sun.boot.class.path" value="/Library/Java/JavaVirtualMachines/jdk1.8.0_121.jdk/Contents/Home/jre/lib/resources.jar:/Library/Java/JavaVirtualMachines/jdk1.8.0_121.jdk/Contents/Home/jre/lib/rt.jar:/Library/Java/JavaVirtualMachines/jdk1.8.0_121.jdk/Contents/Home/jre/lib/sunrsasign.jar:/Library/Java/JavaVirtualMachines/jdk1.8.0_121.jdk/Contents/Home/jre/lib/jsse.jar:/Library/Java/JavaVirtualMachines/jdk1.8.0_121.jdk/Contents/Home/jre/lib/jce.jar:/Library/Java/JavaVirtualMachines/jdk1.8.0_121.jdk/Contents/Home/jre/lib/charsets.jar:/Library/Java/JavaVirtualMachines/jdk1.8.0_121.jdk/Contents/Home/jre/lib/jfr.jar:/Library/Java/JavaVirtualMachines/jdk1.8.0_121.jdk/Contents/Home/jre/classes"/>
    <property name="sun.management.compiler" value="HotSpot 64-Bit Tiered Compilers"/>
    <property name="java.runtime.version" value="1.8.0_121-b13"/>
    <property name="user.name" value="huajuan"/>
    <property name="path.separator" value=":"/>
    <property name="os.version" value="10.14"/>
    <property name="java.endorsed.dirs" value="/Library/Java/JavaVirtualMachines/jdk1.8.0_121.jdk/Contents/Home/jre/lib/endorsed"/>
    <property name="java.runtime.name" value="Java(TM) SE Runtime Environment"/>
    <property name="file.encoding" value="UTF-8"/>
    <property name="java.vm.name" value="Java HotSpot(TM) 64-Bit Server VM"/>
    <property name="localRepository" value="/Users/huajuan/develop_tool/wq_repository"/>
    <property name="java.vendor.url.bug" value="http://bugreport.sun.com/bugreport/"/>
    <property name="java.io.tmpdir" value="/var/folders/jg/gzth6kxn2mjg4w7hy2ssn_dr0000gn/T/"/>
    <property name="java.version" value="1.8.0_121"/>
    <property name="user.dir" value="/Users/huajuan/program/code/wq_rb_code/reg_sub/springBoot_Mybatis/Springboot_Mybatis"/>
    <property name="os.arch" value="x86_64"/>
    <property name="java.vm.specification.name" value="Java Virtual Machine Specification"/>
    <property name="java.awt.printerjob" value="sun.lwawt.macosx.CPrinterJob"/>
    <property name="sun.os.patch.level" value="unknown"/>
    <property name="java.library.path" value="/Users/huajuan/Library/Java/Extensions:/Library/Java/Extensions:/Network/Library/Java/Extensions:/System/Library/Java/Extensions:/usr/lib/java:."/>
    <property name="java.vm.info" value="mixed mode"/>
    <property name="java.vendor" value="Oracle Corporation"/>
    <property name="java.vm.version" value="25.121-b13"/>
    <property name="java.ext.dirs" value="/Users/huajuan/Library/Java/Extensions:/Library/Java/JavaVirtualMachines/jdk1.8.0_121.jdk/Contents/Home/jre/lib/ext:/Library/Java/Extensions:/Network/Library/Java/Extensions:/System/Library/Java/Extensions:/usr/lib/java"/>
    <property name="sun.io.unicode.encoding" value="UnicodeBig"/>
    <property name="java.class.version" value="52.0"/>
  </properties>
  <testcase name="initializationError" classname="com.example.demo.DemoApplicationTests" time="0.007">
    <error message="Unable to find a @SpringBootConfiguration, you need to use @ContextConfiguration or @SpringBootTest(classes=...) with your test" type="java.lang.IllegalStateException">java.lang.IllegalStateException: Unable to find a @SpringBootConfiguration, you need to use @ContextConfiguration or @SpringBootTest(classes=...) with your test
</error>
    <system-out><![CDATA[18:51:12.448 [main] DEBUG org.springframework.test.context.junit4.SpringJUnit4ClassRunner - SpringJUnit4ClassRunner constructor called with [class com.example.demo.DemoApplicationTests]
18:51:12.454 [main] DEBUG org.springframework.test.context.BootstrapUtils - Instantiating CacheAwareContextLoaderDelegate from class [org.springframework.test.context.cache.DefaultCacheAwareContextLoaderDelegate]
18:51:12.462 [main] DEBUG org.springframework.test.context.BootstrapUtils - Instantiating BootstrapContext using constructor [public org.springframework.test.context.support.DefaultBootstrapContext(java.lang.Class,org.springframework.test.context.CacheAwareContextLoaderDelegate)]
18:51:12.483 [main] DEBUG org.springframework.test.context.BootstrapUtils - Instantiating TestContextBootstrapper for test class [com.example.demo.DemoApplicationTests] from class [org.springframework.boot.test.context.SpringBootTestContextBootstrapper]
18:51:12.502 [main] INFO org.springframework.boot.test.context.SpringBootTestContextBootstrapper - Neither @ContextConfiguration nor @ContextHierarchy found for test class [com.example.demo.DemoApplicationTests], using SpringBootContextLoader
18:51:12.506 [main] DEBUG org.springframework.test.context.support.AbstractContextLoader - Did not detect default resource location for test class [com.example.demo.DemoApplicationTests]: class path resource [com/example/demo/DemoApplicationTests-context.xml] does not exist
18:51:12.506 [main] DEBUG org.springframework.test.context.support.AbstractContextLoader - Did not detect default resource location for test class [com.example.demo.DemoApplicationTests]: class path resource [com/example/demo/DemoApplicationTestsContext.groovy] does not exist
18:51:12.507 [main] INFO org.springframework.test.context.support.AbstractContextLoader - Could not detect default resource locations for test class [com.example.demo.DemoApplicationTests]: no resource found for suffixes {-context.xml, Context.groovy}.
18:51:12.508 [main] INFO org.springframework.test.context.support.AnnotationConfigContextLoaderUtils - Could not detect default configuration classes for test class [com.example.demo.DemoApplicationTests]: DemoApplicationTests does not declare any static, non-private, non-final, nested classes annotated with @Configuration.
18:51:12.562 [main] DEBUG org.springframework.test.context.support.ActiveProfilesUtils - Could not find an 'annotation declaring class' for annotation type [org.springframework.test.context.ActiveProfiles] and class [com.example.demo.DemoApplicationTests]
18:51:12.571 [main] DEBUG org.springframework.core.env.StandardEnvironment - Adding PropertySource 'systemProperties' with lowest search precedence
18:51:12.571 [main] DEBUG org.springframework.core.env.StandardEnvironment - Adding PropertySource 'systemEnvironment' with lowest search precedence
18:51:12.572 [main] DEBUG org.springframework.core.env.StandardEnvironment - Initialized StandardEnvironment with PropertySources [MapPropertySource@1157058691 {name='systemProperties', properties={java.runtime.name=Java(TM) SE Runtime Environment, sun.boot.library.path=/Library/Java/JavaVirtualMachines/jdk1.8.0_121.jdk/Contents/Home/jre/lib, java.vm.version=25.121-b13, gopherProxySet=false, java.vm.vendor=Oracle Corporation, java.vendor.url=http://java.oracle.com/, path.separator=:, java.vm.name=Java HotSpot(TM) 64-Bit Server VM, file.encoding.pkg=sun.io, user.country=CN, sun.java.launcher=SUN_STANDARD, sun.os.patch.level=unknown, java.vm.specification.name=Java Virtual Machine Specification, user.dir=/Users/huajuan/program/code/wq_rb_code/reg_sub/springBoot_Mybatis/Springboot_Mybatis, java.runtime.version=1.8.0_121-b13, basedir=/Users/huajuan/program/code/wq_rb_code/reg_sub/springBoot_Mybatis/Springboot_Mybatis, java.awt.graphicsenv=sun.awt.CGraphicsEnvironment, java.endorsed.dirs=/Library/Java/JavaVirtualMachines/jdk1.8.0_121.jdk/Contents/Home/jre/lib/endorsed, os.arch=x86_64, surefire.real.class.path=/Users/huajuan/program/code/wq_rb_code/reg_sub/springBoot_Mybatis/Springboot_Mybatis/target/surefire/surefirebooter7710139619721501333.jar, java.io.tmpdir=/var/folders/jg/gzth6kxn2mjg4w7hy2ssn_dr0000gn/T/, line.separator=
, java.vm.specification.vendor=Oracle Corporation, os.name=Mac OS X, sun.jnu.encoding=UTF-8, java.library.path=/Users/huajuan/Library/Java/Extensions:/Library/Java/Extensions:/Network/Library/Java/Extensions:/System/Library/Java/Extensions:/usr/lib/java:., surefire.test.class.path=/Users/huajuan/program/code/wq_rb_code/reg_sub/springBoot_Mybatis/Springboot_Mybatis/target/test-classes:/Users/huajuan/program/code/wq_rb_code/reg_sub/springBoot_Mybatis/Springboot_Mybatis/target/classes:/Users/huajuan/develop_tool/wq_repository/org/springframework/boot/spring-boot-starter-jdbc/2.0.5.RELEASE/spring-boot-starter-jdbc-2.0.5.RELEASE.jar:/Users/huajuan/develop_tool/wq_repository/org/springframework/boot/spring-boot-starter/2.0.5.RELEASE/spring-boot-starter-2.0.5.RELEASE.jar:/Users/huajuan/develop_tool/wq_repository/org/springframework/boot/spring-boot/2.0.5.RELEASE/spring-boot-2.0.5.RELEASE.jar:/Users/huajuan/develop_tool/wq_repository/org/springframework/boot/spring-boot-autoconfigure/2.0.5.RELEASE/spring-boot-autoconfigure-2.0.5.RELEASE.jar:/Users/huajuan/develop_tool/wq_repository/org/springframework/boot/spring-boot-starter-logging/2.0.5.RELEASE/spring-boot-starter-logging-2.0.5.RELEASE.jar:/Users/huajuan/develop_tool/wq_repository/ch/qos/logback/logback-classic/1.2.3/logback-classic-1.2.3.jar:/Users/huajuan/develop_tool/wq_repository/ch/qos/logback/logback-core/1.2.3/logback-core-1.2.3.jar:/Users/huajuan/develop_tool/wq_repository/org/apache/logging/log4j/log4j-to-slf4j/2.10.0/log4j-to-slf4j-2.10.0.jar:/Users/huajuan/develop_tool/wq_repository/org/apache/logging/log4j/log4j-api/2.10.0/log4j-api-2.10.0.jar:/Users/huajuan/develop_tool/wq_repository/org/slf4j/jul-to-slf4j/1.7.25/jul-to-slf4j-1.7.25.jar:/Users/huajuan/develop_tool/wq_repository/javax/annotation/javax.annotation-api/1.3.2/javax.annotation-api-1.3.2.jar:/Users/huajuan/develop_tool/wq_repository/org/yaml/snakeyaml/1.19/snakeyaml-1.19.jar:/Users/huajuan/develop_tool/wq_repository/com/zaxxer/HikariCP/2.7.9/HikariCP-2.7.9.jar:/Users/huajuan/develop_tool/wq_repository/org/slf4j/slf4j-api/1.7.25/slf4j-api-1.7.25.jar:/Users/huajuan/develop_tool/wq_repository/org/springframework/spring-jdbc/5.0.9.RELEASE/spring-jdbc-5.0.9.RELEASE.jar:/Users/huajuan/develop_tool/wq_repository/org/springframework/spring-beans/5.0.9.RELEASE/spring-beans-5.0.9.RELEASE.jar:/Users/huajuan/develop_tool/wq_repository/org/springframework/boot/spring-boot-starter-web/2.0.5.RELEASE/spring-boot-starter-web-2.0.5.RELEASE.jar:/Users/huajuan/develop_tool/wq_repository/org/springframework/boot/spring-boot-starter-json/2.0.5.RELEASE/spring-boot-starter-json-2.0.5.RELEASE.jar:/Users/huajuan/develop_tool/wq_repository/com/fasterxml/jackson/core/jackson-databind/2.9.6/jackson-databind-2.9.6.jar:/Users/huajuan/develop_tool/wq_repository/com/fasterxml/jackson/core/jackson-annotations/2.9.0/jackson-annotations-2.9.0.jar:/Users/huajuan/develop_tool/wq_repository/com/fasterxml/jackson/core/jackson-core/2.9.6/jackson-core-2.9.6.jar:/Users/huajuan/develop_tool/wq_repository/com/fasterxml/jackson/datatype/jackson-datatype-jdk8/2.9.6/jackson-datatype-jdk8-2.9.6.jar:/Users/huajuan/develop_tool/wq_repository/com/fasterxml/jackson/datatype/jackson-datatype-jsr310/2.9.6/jackson-datatype-jsr310-2.9.6.jar:/Users/huajuan/develop_tool/wq_repository/com/fasterxml/jackson/module/jackson-module-parameter-names/2.9.6/jackson-module-parameter-names-2.9.6.jar:/Users/huajuan/develop_tool/wq_repository/org/springframework/boot/spring-boot-starter-tomcat/2.0.5.RELEASE/spring-boot-starter-tomcat-2.0.5.RELEASE.jar:/Users/huajuan/develop_tool/wq_repository/org/apache/tomcat/embed/tomcat-embed-core/8.5.34/tomcat-embed-core-8.5.34.jar:/Users/huajuan/develop_tool/wq_repository/org/apache/tomcat/embed/tomcat-embed-el/8.5.34/tomcat-embed-el-8.5.34.jar:/Users/huajuan/develop_tool/wq_repository/org/apache/tomcat/embed/tomcat-embed-websocket/8.5.34/tomcat-embed-websocket-8.5.34.jar:/Users/huajuan/develop_tool/wq_repository/org/hibernate/validator/hibernate-validator/6.0.12.Final/hibernate-validator-6.0.12.Final.jar:/Users/huajuan/develop_tool/wq_repository/javax/validation/validation-api/2.0.1.Final/validation-api-2.0.1.Final.jar:/Users/huajuan/develop_tool/wq_repository/org/jboss/logging/jboss-logging/3.3.2.Final/jboss-logging-3.3.2.Final.jar:/Users/huajuan/develop_tool/wq_repository/com/fasterxml/classmate/1.3.4/classmate-1.3.4.jar:/Users/huajuan/develop_tool/wq_repository/org/springframework/spring-web/5.0.9.RELEASE/spring-web-5.0.9.RELEASE.jar:/Users/huajuan/develop_tool/wq_repository/org/springframework/spring-webmvc/5.0.9.RELEASE/spring-webmvc-5.0.9.RELEASE.jar:/Users/huajuan/develop_tool/wq_repository/org/springframework/spring-aop/5.0.9.RELEASE/spring-aop-5.0.9.RELEASE.jar:/Users/huajuan/develop_tool/wq_repository/org/springframework/spring-context/5.0.9.RELEASE/spring-context-5.0.9.RELEASE.jar:/Users/huajuan/develop_tool/wq_repository/org/springframework/spring-expression/5.0.9.RELEASE/spring-expression-5.0.9.RELEASE.jar:/Users/huajuan/develop_tool/wq_repository/org/mybatis/spring/boot/mybatis-spring-boot-starter/1.3.2/mybatis-spring-boot-starter-1.3.2.jar:/Users/huajuan/develop_tool/wq_repository/org/mybatis/spring/boot/mybatis-spring-boot-autoconfigure/1.3.2/mybatis-spring-boot-autoconfigure-1.3.2.jar:/Users/huajuan/develop_tool/wq_repository/org/mybatis/mybatis/3.4.6/mybatis-3.4.6.jar:/Users/huajuan/develop_tool/wq_repository/org/mybatis/mybatis-spring/1.3.2/mybatis-spring-1.3.2.jar:/Users/huajuan/develop_tool/wq_repository/mysql/mysql-connector-java/8.0.15/mysql-connector-java-8.0.15.jar:/Users/huajuan/develop_tool/wq_repository/com/google/protobuf/protobuf-java/3.6.1/protobuf-java-3.6.1.jar:/Users/huajuan/develop_tool/wq_repository/org/springframework/boot/spring-boot-starter-test/2.0.5.RELEASE/spring-boot-starter-test-2.0.5.RELEASE.jar:/Users/huajuan/develop_tool/wq_repository/org/springframework/boot/spring-boot-test/2.0.5.RELEASE/spring-boot-test-2.0.5.RELEASE.jar:/Users/huajuan/develop_tool/wq_repository/org/springframework/boot/spring-boot-test-autoconfigure/2.0.5.RELEASE/spring-boot-test-autoconfigure-2.0.5.RELEASE.jar:/Users/huajuan/develop_tool/wq_repository/com/jayway/jsonpath/json-path/2.4.0/json-path-2.4.0.jar:/Users/huajuan/develop_tool/wq_repository/net/minidev/json-smart/2.3/json-smart-2.3.jar:/Users/huajuan/develop_tool/wq_repository/net/minidev/accessors-smart/1.2/accessors-smart-1.2.jar:/Users/huajuan/develop_tool/wq_repository/org/ow2/asm/asm/5.0.4/asm-5.0.4.jar:/Users/huajuan/develop_tool/wq_repository/junit/junit/4.12/junit-4.12.jar:/Users/huajuan/develop_tool/wq_repository/org/assertj/assertj-core/3.9.1/assertj-core-3.9.1.jar:/Users/huajuan/develop_tool/wq_repository/org/mockito/mockito-core/2.15.0/mockito-core-2.15.0.jar:/Users/huajuan/develop_tool/wq_repository/net/bytebuddy/byte-buddy/1.7.11/byte-buddy-1.7.11.jar:/Users/huajuan/develop_tool/wq_repository/net/bytebuddy/byte-buddy-agent/1.7.11/byte-buddy-agent-1.7.11.jar:/Users/huajuan/develop_tool/wq_repository/org/objenesis/objenesis/2.6/objenesis-2.6.jar:/Users/huajuan/develop_tool/wq_repository/org/hamcrest/hamcrest-core/1.3/hamcrest-core-1.3.jar:/Users/huajuan/develop_tool/wq_repository/org/hamcrest/hamcrest-library/1.3/hamcrest-library-1.3.jar:/Users/huajuan/develop_tool/wq_repository/org/skyscreamer/jsonassert/1.5.0/jsonassert-1.5.0.jar:/Users/huajuan/develop_tool/wq_repository/com/vaadin/external/google/android-json/0.0.20131108.vaadin1/android-json-0.0.20131108.vaadin1.jar:/Users/huajuan/develop_tool/wq_repository/org/springframework/spring-core/5.0.9.RELEASE/spring-core-5.0.9.RELEASE.jar:/Users/huajuan/develop_tool/wq_repository/org/springframework/spring-jcl/5.0.9.RELEASE/spring-jcl-5.0.9.RELEASE.jar:/Users/huajuan/develop_tool/wq_repository/org/springframework/spring-test/5.0.9.RELEASE/spring-test-5.0.9.RELEASE.jar:/Users/huajuan/develop_tool/wq_repository/org/xmlunit/xmlunit-core/2.5.1/xmlunit-core-2.5.1.jar:/Users/huajuan/develop_tool/wq_repository/dom4j/dom4j/1.6.1/dom4j-1.6.1.jar:/Users/huajuan/develop_tool/wq_repository/xml-apis/xml-apis/1.4.01/xml-apis-1.4.01.jar:/Users/huajuan/develop_tool/wq_repository/com/jcraft/jsch/0.1.54/jsch-0.1.54.jar:/Users/huajuan/develop_tool/wq_repository/log4j/log4j/1.2.17/log4j-1.2.17.jar:/Users/huajuan/develop_tool/wq_repository/org/springframework/boot/spring-boot-starter-quartz/2.0.5.RELEASE/spring-boot-starter-quartz-2.0.5.RELEASE.jar:/Users/huajuan/develop_tool/wq_repository/org/springframework/spring-context-support/5.0.9.RELEASE/spring-context-support-5.0.9.RELEASE.jar:/Users/huajuan/develop_tool/wq_repository/org/springframework/spring-tx/5.0.9.RELEASE/spring-tx-5.0.9.RELEASE.jar:/Users/huajuan/develop_tool/wq_repository/org/quartz-scheduler/quartz/2.3.0/quartz-2.3.0.jar:/Users/huajuan/develop_tool/wq_repository/com/mchange/mchange-commons-java/0.2.11/mchange-commons-java-0.2.11.jar:/Users/huajuan/develop_tool/wq_repository/org/projectlombok/lombok/1.16.22/lombok-1.16.22.jar:/Users/huajuan/develop_tool/wq_repository/commons-beanutils/commons-beanutils/1.9.3/commons-beanutils-1.9.3.jar:/Users/huajuan/develop_tool/wq_repository/commons-logging/commons-logging/1.2/commons-logging-1.2.jar:/Users/huajuan/develop_tool/wq_repository/commons-collections/commons-collections/3.2.2/commons-collections-3.2.2.jar:/Users/huajuan/develop_tool/wq_repository/commons-chain/commons-chain/1.2/commons-chain-1.2.jar:/Users/huajuan/develop_tool/wq_repository/org/apache/commons/commons-lang3/3.7/commons-lang3-3.7.jar:/Users/huajuan/develop_tool/wq_repository/com/sun/mail/javax.mail/1.5.6/javax.mail-1.5.6.jar:/Users/huajuan/develop_tool/wq_repository/javax/activation/activation/1.1/activation-1.1.jar:, java.specification.name=Java Platform API Specification, java.class.version=52.0, sun.management.compiler=HotSpot 64-Bit Tiered Compilers, os.version=10.14, user.home=/Users/huajuan, user.timezone=Asia/Shanghai, java.awt.printerjob=sun.lwawt.macosx.CPrinterJob, file.encoding=UTF-8, java.specification.version=1.8, java.class.path=/Users/huajuan/program/code/wq_rb_code/reg_sub/springBoot_Mybatis/Springboot_Mybatis/target/test-classes:/Users/huajuan/program/code/wq_rb_code/reg_sub/springBoot_Mybatis/Springboot_Mybatis/target/classes:/Users/huajuan/develop_tool/wq_repository/org/springframework/boot/spring-boot-starter-jdbc/2.0.5.RELEASE/spring-boot-starter-jdbc-2.0.5.RELEASE.jar:/Users/huajuan/develop_tool/wq_repository/org/springframework/boot/spring-boot-starter/2.0.5.RELEASE/spring-boot-starter-2.0.5.RELEASE.jar:/Users/huajuan/develop_tool/wq_repository/org/springframework/boot/spring-boot/2.0.5.RELEASE/spring-boot-2.0.5.RELEASE.jar:/Users/huajuan/develop_tool/wq_repository/org/springframework/boot/spring-boot-autoconfigure/2.0.5.RELEASE/spring-boot-autoconfigure-2.0.5.RELEASE.jar:/Users/huajuan/develop_tool/wq_repository/org/springframework/boot/spring-boot-starter-logging/2.0.5.RELEASE/spring-boot-starter-logging-2.0.5.RELEASE.jar:/Users/huajuan/develop_tool/wq_repository/ch/qos/logback/logback-classic/1.2.3/logback-classic-1.2.3.jar:/Users/huajuan/develop_tool/wq_repository/ch/qos/logback/logback-core/1.2.3/logback-core-1.2.3.jar:/Users/huajuan/develop_tool/wq_repository/org/apache/logging/log4j/log4j-to-slf4j/2.10.0/log4j-to-slf4j-2.10.0.jar:/Users/huajuan/develop_tool/wq_repository/org/apache/logging/log4j/log4j-api/2.10.0/log4j-api-2.10.0.jar:/Users/huajuan/develop_tool/wq_repository/org/slf4j/jul-to-slf4j/1.7.25/jul-to-slf4j-1.7.25.jar:/Users/huajuan/develop_tool/wq_repository/javax/annotation/javax.annotation-api/1.3.2/javax.annotation-api-1.3.2.jar:/Users/huajuan/develop_tool/wq_repository/org/yaml/snakeyaml/1.19/snakeyaml-1.19.jar:/Users/huajuan/develop_tool/wq_repository/com/zaxxer/HikariCP/2.7.9/HikariCP-2.7.9.jar:/Users/huajuan/develop_tool/wq_repository/org/slf4j/slf4j-api/1.7.25/slf4j-api-1.7.25.jar:/Users/huajuan/develop_tool/wq_repository/org/springframework/spring-jdbc/5.0.9.RELEASE/spring-jdbc-5.0.9.RELEASE.jar:/Users/huajuan/develop_tool/wq_repository/org/springframework/spring-beans/5.0.9.RELEASE/spring-beans-5.0.9.RELEASE.jar:/Users/huajuan/develop_tool/wq_repository/org/springframework/boot/spring-boot-starter-web/2.0.5.RELEASE/spring-boot-starter-web-2.0.5.RELEASE.jar:/Users/huajuan/develop_tool/wq_repository/org/springframework/boot/spring-boot-starter-json/2.0.5.RELEASE/spring-boot-starter-json-2.0.5.RELEASE.jar:/Users/huajuan/develop_tool/wq_repository/com/fasterxml/jackson/core/jackson-databind/2.9.6/jackson-databind-2.9.6.jar:/Users/huajuan/develop_tool/wq_repository/com/fasterxml/jackson/core/jackson-annotations/2.9.0/jackson-annotations-2.9.0.jar:/Users/huajuan/develop_tool/wq_repository/com/fasterxml/jackson/core/jackson-core/2.9.6/jackson-core-2.9.6.jar:/Users/huajuan/develop_tool/wq_repository/com/fasterxml/jackson/datatype/jackson-datatype-jdk8/2.9.6/jackson-datatype-jdk8-2.9.6.jar:/Users/huajuan/develop_tool/wq_repository/com/fasterxml/jackson/datatype/jackson-datatype-jsr310/2.9.6/jackson-datatype-jsr310-2.9.6.jar:/Users/huajuan/develop_tool/wq_repository/com/fasterxml/jackson/module/jackson-module-parameter-names/2.9.6/jackson-module-parameter-names-2.9.6.jar:/Users/huajuan/develop_tool/wq_repository/org/springframework/boot/spring-boot-starter-tomcat/2.0.5.RELEASE/spring-boot-starter-tomcat-2.0.5.RELEASE.jar:/Users/huajuan/develop_tool/wq_repository/org/apache/tomcat/embed/tomcat-embed-core/8.5.34/tomcat-embed-core-8.5.34.jar:/Users/huajuan/develop_tool/wq_repository/org/apache/tomcat/embed/tomcat-embed-el/8.5.34/tomcat-embed-el-8.5.34.jar:/Users/huajuan/develop_tool/wq_repository/org/apache/tomcat/embed/tomcat-embed-websocket/8.5.34/tomcat-embed-websocket-8.5.34.jar:/Users/huajuan/develop_tool/wq_repository/org/hibernate/validator/hibernate-validator/6.0.12.Final/hibernate-validator-6.0.12.Final.jar:/Users/huajuan/develop_tool/wq_repository/javax/validation/validation-api/2.0.1.Final/validation-api-2.0.1.Final.jar:/Users/huajuan/develop_tool/wq_repository/org/jboss/logging/jboss-logging/3.3.2.Final/jboss-logging-3.3.2.Final.jar:/Users/huajuan/develop_tool/wq_repository/com/fasterxml/classmate/1.3.4/classmate-1.3.4.jar:/Users/huajuan/develop_tool/wq_repository/org/springframework/spring-web/5.0.9.RELEASE/spring-web-5.0.9.RELEASE.jar:/Users/huajuan/develop_tool/wq_repository/org/springframework/spring-webmvc/5.0.9.RELEASE/spring-webmvc-5.0.9.RELEASE.jar:/Users/huajuan/develop_tool/wq_repository/org/springframework/spring-aop/5.0.9.RELEASE/spring-aop-5.0.9.RELEASE.jar:/Users/huajuan/develop_tool/wq_repository/org/springframework/spring-context/5.0.9.RELEASE/spring-context-5.0.9.RELEASE.jar:/Users/huajuan/develop_tool/wq_repository/org/springframework/spring-expression/5.0.9.RELEASE/spring-expression-5.0.9.RELEASE.jar:/Users/huajuan/develop_tool/wq_repository/org/mybatis/spring/boot/mybatis-spring-boot-starter/1.3.2/mybatis-spring-boot-starter-1.3.2.jar:/Users/huajuan/develop_tool/wq_repository/org/mybatis/spring/boot/mybatis-spring-boot-autoconfigure/1.3.2/mybatis-spring-boot-autoconfigure-1.3.2.jar:/Users/huajuan/develop_tool/wq_repository/org/mybatis/mybatis/3.4.6/mybatis-3.4.6.jar:/Users/huajuan/develop_tool/wq_repository/org/mybatis/mybatis-spring/1.3.2/mybatis-spring-1.3.2.jar:/Users/huajuan/develop_tool/wq_repository/mysql/mysql-connector-java/8.0.15/mysql-connector-java-8.0.15.jar:/Users/huajuan/develop_tool/wq_repository/com/google/protobuf/protobuf-java/3.6.1/protobuf-java-3.6.1.jar:/Users/huajuan/develop_tool/wq_repository/org/springframework/boot/spring-boot-starter-test/2.0.5.RELEASE/spring-boot-starter-test-2.0.5.RELEASE.jar:/Users/huajuan/develop_tool/wq_repository/org/springframework/boot/spring-boot-test/2.0.5.RELEASE/spring-boot-test-2.0.5.RELEASE.jar:/Users/huajuan/develop_tool/wq_repository/org/springframework/boot/spring-boot-test-autoconfigure/2.0.5.RELEASE/spring-boot-test-autoconfigure-2.0.5.RELEASE.jar:/Users/huajuan/develop_tool/wq_repository/com/jayway/jsonpath/json-path/2.4.0/json-path-2.4.0.jar:/Users/huajuan/develop_tool/wq_repository/net/minidev/json-smart/2.3/json-smart-2.3.jar:/Users/huajuan/develop_tool/wq_repository/net/minidev/accessors-smart/1.2/accessors-smart-1.2.jar:/Users/huajuan/develop_tool/wq_repository/org/ow2/asm/asm/5.0.4/asm-5.0.4.jar:/Users/huajuan/develop_tool/wq_repository/junit/junit/4.12/junit-4.12.jar:/Users/huajuan/develop_tool/wq_repository/org/assertj/assertj-core/3.9.1/assertj-core-3.9.1.jar:/Users/huajuan/develop_tool/wq_repository/org/mockito/mockito-core/2.15.0/mockito-core-2.15.0.jar:/Users/huajuan/develop_tool/wq_repository/net/bytebuddy/byte-buddy/1.7.11/byte-buddy-1.7.11.jar:/Users/huajuan/develop_tool/wq_repository/net/bytebuddy/byte-buddy-agent/1.7.11/byte-buddy-agent-1.7.11.jar:/Users/huajuan/develop_tool/wq_repository/org/objenesis/objenesis/2.6/objenesis-2.6.jar:/Users/huajuan/develop_tool/wq_repository/org/hamcrest/hamcrest-core/1.3/hamcrest-core-1.3.jar:/Users/huajuan/develop_tool/wq_repository/org/hamcrest/hamcrest-library/1.3/hamcrest-library-1.3.jar:/Users/huajuan/develop_tool/wq_repository/org/skyscreamer/jsonassert/1.5.0/jsonassert-1.5.0.jar:/Users/huajuan/develop_tool/wq_repository/com/vaadin/external/google/android-json/0.0.20131108.vaadin1/android-json-0.0.20131108.vaadin1.jar:/Users/huajuan/develop_tool/wq_repository/org/springframework/spring-core/5.0.9.RELEASE/spring-core-5.0.9.RELEASE.jar:/Users/huajuan/develop_tool/wq_repository/org/springframework/spring-jcl/5.0.9.RELEASE/spring-jcl-5.0.9.RELEASE.jar:/Users/huajuan/develop_tool/wq_repository/org/springframework/spring-test/5.0.9.RELEASE/spring-test-5.0.9.RELEASE.jar:/Users/huajuan/develop_tool/wq_repository/org/xmlunit/xmlunit-core/2.5.1/xmlunit-core-2.5.1.jar:/Users/huajuan/develop_tool/wq_repository/dom4j/dom4j/1.6.1/dom4j-1.6.1.jar:/Users/huajuan/develop_tool/wq_repository/xml-apis/xml-apis/1.4.01/xml-apis-1.4.01.jar:/Users/huajuan/develop_tool/wq_repository/com/jcraft/jsch/0.1.54/jsch-0.1.54.jar:/Users/huajuan/develop_tool/wq_repository/log4j/log4j/1.2.17/log4j-1.2.17.jar:/Users/huajuan/develop_tool/wq_repository/org/springframework/boot/spring-boot-starter-quartz/2.0.5.RELEASE/spring-boot-starter-quartz-2.0.5.RELEASE.jar:/Users/huajuan/develop_tool/wq_repository/org/springframework/spring-context-support/5.0.9.RELEASE/spring-context-support-5.0.9.RELEASE.jar:/Users/huajuan/develop_tool/wq_repository/org/springframework/spring-tx/5.0.9.RELEASE/spring-tx-5.0.9.RELEASE.jar:/Users/huajuan/develop_tool/wq_repository/org/quartz-scheduler/quartz/2.3.0/quartz-2.3.0.jar:/Users/huajuan/develop_tool/wq_repository/com/mchange/mchange-commons-java/0.2.11/mchange-commons-java-0.2.11.jar:/Users/huajuan/develop_tool/wq_repository/org/projectlombok/lombok/1.16.22/lombok-1.16.22.jar:/Users/huajuan/develop_tool/wq_repository/commons-beanutils/commons-beanutils/1.9.3/commons-beanutils-1.9.3.jar:/Users/huajuan/develop_tool/wq_repository/commons-logging/commons-logging/1.2/commons-logging-1.2.jar:/Users/huajuan/develop_tool/wq_repository/commons-collections/commons-collections/3.2.2/commons-collections-3.2.2.jar:/Users/huajuan/develop_tool/wq_repository/commons-chain/commons-chain/1.2/commons-chain-1.2.jar:/Users/huajuan/develop_tool/wq_repository/org/apache/commons/commons-lang3/3.7/commons-lang3-3.7.jar:/Users/huajuan/develop_tool/wq_repository/com/sun/mail/javax.mail/1.5.6/javax.mail-1.5.6.jar:/Users/huajuan/develop_tool/wq_repository/javax/activation/activation/1.1/activation-1.1.jar:, user.name=huajuan, java.vm.specification.version=1.8, sun.java.command=/Users/huajuan/program/code/wq_rb_code/reg_sub/springBoot_Mybatis/Springboot_Mybatis/target/surefire/surefirebooter7710139619721501333.jar /Users/huajuan/program/code/wq_rb_code/reg_sub/springBoot_Mybatis/Springboot_Mybatis/target/surefire 2021-03-03T18-51-11_741-jvmRun1 surefire2364494686060824286tmp surefire_03744013847909135313tmp, java.home=/Library/Java/JavaVirtualMachines/jdk1.8.0_121.jdk/Contents/Home/jre, sun.arch.data.model=64, user.language=zh, java.specification.vendor=Oracle Corporation, awt.toolkit=sun.lwawt.macosx.LWCToolkit, java.vm.info=mixed mode, java.version=1.8.0_121, java.ext.dirs=/Users/huajuan/Library/Java/Extensions:/Library/Java/JavaVirtualMachines/jdk1.8.0_121.jdk/Contents/Home/jre/lib/ext:/Library/Java/Extensions:/Network/Library/Java/Extensions:/System/Library/Java/Extensions:/usr/lib/java, sun.boot.class.path=/Library/Java/JavaVirtualMachines/jdk1.8.0_121.jdk/Contents/Home/jre/lib/resources.jar:/Library/Java/JavaVirtualMachines/jdk1.8.0_121.jdk/Contents/Home/jre/lib/rt.jar:/Library/Java/JavaVirtualMachines/jdk1.8.0_121.jdk/Contents/Home/jre/lib/sunrsasign.jar:/Library/Java/JavaVirtualMachines/jdk1.8.0_121.jdk/Contents/Home/jre/lib/jsse.jar:/Library/Java/JavaVirtualMachines/jdk1.8.0_121.jdk/Contents/Home/jre/lib/jce.jar:/Library/Java/JavaVirtualMachines/jdk1.8.0_121.jdk/Contents/Home/jre/lib/charsets.jar:/Library/Java/JavaVirtualMachines/jdk1.8.0_121.jdk/Contents/Home/jre/lib/jfr.jar:/Library/Java/JavaVirtualMachines/jdk1.8.0_121.jdk/Contents/Home/jre/classes, java.vendor=Oracle Corporation, localRepository=/Users/huajuan/develop_tool/wq_repository, file.separator=/, java.vendor.url.bug=http://bugreport.sun.com/bugreport/, sun.io.unicode.encoding=UnicodeBig, sun.cpu.endian=little, sun.cpu.isalist=}}, SystemEnvironmentPropertySource@40472007 {name='systemEnvironment', properties={PATH=/Library/Frameworks/Python.framework/Versions/2.7/bin:/usr/local/bin:/Library/Java/JavaVirtualMachines/jdk1.8.0_121.jdk/Contents/Home:/usr/local/bin:/usr/bin:/bin:/usr/sbin:/sbin:/opt/X11/bin:/Library/Frameworks/Python.framework/Versions/2.7/bin:/Library/Java/JavaVirtualMachines/jdk1.8.0_121.jdk/Contents/Home:/usr/local/share/scala/bin:/Library/Java/JavaVirtualMachines/jdk1.8.0_121.jdk/Contents/Home/jre/lib/server:/Users/huajuan/develop_tool/maven/bin:/usr/local/gradle-3.5/bin:/Users/huajuan/develop_tool/hadoop-2.7.3/bin:/usr/local/mysql/bin:/Users/huajuan/develop_tool/scala/bin:/Users/huajuan/develop_tool/spark-1.6.0-bin-hadoop2.6/bin:/anaconda3/bin:/usr/local/share/scala/bin:/bin:/Library/Java/JavaVirtualMachines/jdk1.8.0_121.jdk/Contents/Home/jre/lib/server:/Users/huajuan/develop_tool/maven/bin:/bin:/usr/local/gradle-3.5/bin:/Library/Java/JavaVirtualMachines/jdk1.8.0_121.jdk/Contents/Home/jre/lib/server:/Users/huajuan/develop_tool/hadoop-2.7.3/bin:/usr/local/mysql/bin:/Users/huajuan/develop_tool/scala/bin:/Users/huajuan/develop_tool/spark-1.6.0-bin-hadoop2.6/bin:/anaconda3/bin, JAVA_HOME=/Library/Java/JavaVirtualMachines/jdk1.8.0_121.jdk/Contents/Home, TERM=xterm-256color, LANG=zh_CN.UTF-8, GRADLE_HOME=/usr/local/gradle-3.5, JRE_HOME=/Library/Java/JavaVirtualMachines/jdk1.8.0_121.jdk/Contents/Home, DISPLAY=/private/tmp/com.apple.launchd.JxE6EkxWYp/org.macosforge.xquartz:0, ITERM_SESSION_ID=w0t0p0:9515E91A-5D93-496B-8805-67C16017CAAB, COLORTERM=truecolor, LOGNAME=huajuan, XPC_SERVICE_NAME=0, PWD=/Users/huajuan/program/code/wq_rb_code/reg_sub/springBoot_Mybatis/Springboot_Mybatis, TERM_PROGRAM_VERSION=3.1.5, MAVEN_CMD_LINE_ARGS= clean package, _=/Library/Java/JavaVirtualMachines/jdk1.8.0_121.jdk/Contents/Home/jre/bin/java, JAVA_MAIN_CLASS_20408=org.apache.maven.surefire.booter.ForkedBooter, SHELL=/bin/bash, TERM_PROGRAM=iTerm.app, HADOOP_OPTS=-Djava.library.path=/Users/huajuan/develop_tool/hadoop-2.7.3/lib:/Users/huajuan/develop_tool/hadoop-2.7.3/lib/native, SBT_HOME=/Users/huajuan/develop_tool/sbt, MAVEN_PROJECTBASEDIR=/Users/huajuan/program/code/wq_rb_code/reg_sub/springBoot_Mybatis/Springboot_Mybatis, OLDPWD=/Users/huajuan/program/code/wq_rb_code/reg_sub/springBoot_Mybatis/Springboot_Mybatis, USER=huajuan, ITERM_PROFILE=Default, TMPDIR=/var/folders/jg/gzth6kxn2mjg4w7hy2ssn_dr0000gn/T/, SSH_AUTH_SOCK=/private/tmp/com.apple.launchd.ExL5REgpzw/Listeners, JAVA_MAIN_CLASS_20393=org.codehaus.plexus.classworlds.launcher.Launcher, XPC_FLAGS=0x0, TERM_SESSION_ID=w0t0p0:9515E91A-5D93-496B-8805-67C16017CAAB, M2_HOME=/Users/huajuan/develop_tool/maven, HADOOP_HOME=/Users/huajuan/develop_tool/hadoop-2.7.3, __CF_USER_TEXT_ENCODING=0x1F5:0x19:0x34, Apple_PubSub_Socket_Render=/private/tmp/com.apple.launchd.rxp4qlVCRb/Render, HADOOP_COMMON_LIB_NATIVE_DIR=/Users/huajuan/develop_tool/hadoop-2.7.3/lib/native, LC_CTYPE=zh_CN.UTF-8, COLORFGBG=7;0, HOME=/Users/huajuan, SHLVL=3}}]
18:51:12.598 [main] DEBUG org.springframework.core.io.support.PathMatchingResourcePatternResolver - Resolved classpath location [com/example/demo/] to resources [URL [file:/Users/huajuan/program/code/wq_rb_code/reg_sub/springBoot_Mybatis/Springboot_Mybatis/target/test-classes/com/example/demo/]]
18:51:12.599 [main] DEBUG org.springframework.core.io.support.PathMatchingResourcePatternResolver - Looking for matching resources in directory tree [/Users/huajuan/program/code/wq_rb_code/reg_sub/springBoot_Mybatis/Springboot_Mybatis/target/test-classes/com/example/demo]
18:51:12.599 [main] DEBUG org.springframework.core.io.support.PathMatchingResourcePatternResolver - Searching directory [/Users/huajuan/program/code/wq_rb_code/reg_sub/springBoot_Mybatis/Springboot_Mybatis/target/test-classes/com/example/demo] for files matching pattern [/Users/huajuan/program/code/wq_rb_code/reg_sub/springBoot_Mybatis/Springboot_Mybatis/target/test-classes/com/example/demo/*.class]
18:51:12.603 [main] DEBUG org.springframework.core.io.support.PathMatchingResourcePatternResolver - Resolved location pattern [classpath*:com/example/demo/*.class] to resources [file [/Users/huajuan/program/code/wq_rb_code/reg_sub/springBoot_Mybatis/Springboot_Mybatis/target/test-classes/com/example/demo/DemoApplicationTests.class]]
18:51:12.646 [main] DEBUG org.springframework.core.io.support.PathMatchingResourcePatternResolver - Resolved classpath location [com/example/] to resources [URL [file:/Users/huajuan/program/code/wq_rb_code/reg_sub/springBoot_Mybatis/Springboot_Mybatis/target/test-classes/com/example/]]
18:51:12.646 [main] DEBUG org.springframework.core.io.support.PathMatchingResourcePatternResolver - Looking for matching resources in directory tree [/Users/huajuan/program/code/wq_rb_code/reg_sub/springBoot_Mybatis/Springboot_Mybatis/target/test-classes/com/example]
18:51:12.646 [main] DEBUG org.springframework.core.io.support.PathMatchingResourcePatternResolver - Searching directory [/Users/huajuan/program/code/wq_rb_code/reg_sub/springBoot_Mybatis/Springboot_Mybatis/target/test-classes/com/example] for files matching pattern [/Users/huajuan/program/code/wq_rb_code/reg_sub/springBoot_Mybatis/Springboot_Mybatis/target/test-classes/com/example/*.class]
18:51:12.646 [main] DEBUG org.springframework.core.io.support.PathMatchingResourcePatternResolver - Resolved location pattern [classpath*:com/example/*.class] to resources []
18:51:12.648 [main] DEBUG org.springframework.core.io.support.PathMatchingResourcePatternResolver - Resolved classpath location [com/] to resources [URL [jar:file:/System/Library/Java/Extensions/MRJToolkit.jar!/com/], URL [file:/Users/huajuan/program/code/wq_rb_code/reg_sub/springBoot_Mybatis/Springboot_Mybatis/target/test-classes/com/], URL [file:/Users/huajuan/program/code/wq_rb_code/reg_sub/springBoot_Mybatis/Springboot_Mybatis/target/classes/com/], URL [jar:file:/Users/huajuan/develop_tool/wq_repository/com/zaxxer/HikariCP/2.7.9/HikariCP-2.7.9.jar!/com/], URL [jar:file:/Users/huajuan/develop_tool/wq_repository/com/fasterxml/jackson/core/jackson-databind/2.9.6/jackson-databind-2.9.6.jar!/com/], URL [jar:file:/Users/huajuan/develop_tool/wq_repository/com/fasterxml/jackson/core/jackson-annotations/2.9.0/jackson-annotations-2.9.0.jar!/com/], URL [jar:file:/Users/huajuan/develop_tool/wq_repository/com/fasterxml/jackson/core/jackson-core/2.9.6/jackson-core-2.9.6.jar!/com/], URL [jar:file:/Users/huajuan/develop_tool/wq_repository/com/fasterxml/jackson/datatype/jackson-datatype-jdk8/2.9.6/jackson-datatype-jdk8-2.9.6.jar!/com/], URL [jar:file:/Users/huajuan/develop_tool/wq_repository/com/fasterxml/jackson/datatype/jackson-datatype-jsr310/2.9.6/jackson-datatype-jsr310-2.9.6.jar!/com/], URL [jar:file:/Users/huajuan/develop_tool/wq_repository/com/fasterxml/jackson/module/jackson-module-parameter-names/2.9.6/jackson-module-parameter-names-2.9.6.jar!/com/], URL [jar:file:/Users/huajuan/develop_tool/wq_repository/com/fasterxml/classmate/1.3.4/classmate-1.3.4.jar!/com/], URL [jar:file:/Users/huajuan/develop_tool/wq_repository/mysql/mysql-connector-java/8.0.15/mysql-connector-java-8.0.15.jar!/com/], URL [jar:file:/Users/huajuan/develop_tool/wq_repository/com/google/protobuf/protobuf-java/3.6.1/protobuf-java-3.6.1.jar!/com/], URL [jar:file:/Users/huajuan/develop_tool/wq_repository/com/jayway/jsonpath/json-path/2.4.0/json-path-2.4.0.jar!/com/], URL [jar:file:/Users/huajuan/develop_tool/wq_repository/com/jcraft/jsch/0.1.54/jsch-0.1.54.jar!/com/], URL [jar:file:/Users/huajuan/develop_tool/wq_repository/com/mchange/mchange-commons-java/0.2.11/mchange-commons-java-0.2.11.jar!/com/], URL [jar:file:/Users/huajuan/develop_tool/wq_repository/org/projectlombok/lombok/1.16.22/lombok-1.16.22.jar!/com/], URL [jar:file:/Users/huajuan/develop_tool/wq_repository/com/sun/mail/javax.mail/1.5.6/javax.mail-1.5.6.jar!/com/], URL [jar:file:/Users/huajuan/develop_tool/wq_repository/javax/activation/activation/1.1/activation-1.1.jar!/com/]]
18:51:12.649 [main] DEBUG org.springframework.core.io.support.PathMatchingResourcePatternResolver - Looking for matching resources in jar file [file:/System/Library/Java/Extensions/MRJToolkit.jar]
18:51:12.651 [main] DEBUG org.springframework.core.io.support.PathMatchingResourcePatternResolver - Looking for matching resources in directory tree [/Users/huajuan/program/code/wq_rb_code/reg_sub/springBoot_Mybatis/Springboot_Mybatis/target/test-classes/com]
18:51:12.652 [main] DEBUG org.springframework.core.io.support.PathMatchingResourcePatternResolver - Searching directory [/Users/huajuan/program/code/wq_rb_code/reg_sub/springBoot_Mybatis/Springboot_Mybatis/target/test-classes/com] for files matching pattern [/Users/huajuan/program/code/wq_rb_code/reg_sub/springBoot_Mybatis/Springboot_Mybatis/target/test-classes/com/*.class]
18:51:12.654 [main] DEBUG org.springframework.core.io.support.PathMatchingResourcePatternResolver - Looking for matching resources in directory tree [/Users/huajuan/program/code/wq_rb_code/reg_sub/springBoot_Mybatis/Springboot_Mybatis/target/classes/com]
18:51:12.655 [main] DEBUG org.springframework.core.io.support.PathMatchingResourcePatternResolver - Searching directory [/Users/huajuan/program/code/wq_rb_code/reg_sub/springBoot_Mybatis/Springboot_Mybatis/target/classes/com] for files matching pattern [/Users/huajuan/program/code/wq_rb_code/reg_sub/springBoot_Mybatis/Springboot_Mybatis/target/classes/com/*.class]
18:51:12.657 [main] DEBUG org.springframework.core.io.support.PathMatchingResourcePatternResolver - Looking for matching resources in jar file [file:/Users/huajuan/develop_tool/wq_repository/com/zaxxer/HikariCP/2.7.9/HikariCP-2.7.9.jar]
18:51:12.661 [main] DEBUG org.springframework.core.io.support.PathMatchingResourcePatternResolver - Looking for matching resources in jar file [file:/Users/huajuan/develop_tool/wq_repository/com/fasterxml/jackson/core/jackson-databind/2.9.6/jackson-databind-2.9.6.jar]
18:51:12.676 [main] DEBUG org.springframework.core.io.support.PathMatchingResourcePatternResolver - Looking for matching resources in jar file [file:/Users/huajuan/develop_tool/wq_repository/com/fasterxml/jackson/core/jackson-annotations/2.9.0/jackson-annotations-2.9.0.jar]
18:51:12.677 [main] DEBUG org.springframework.core.io.support.PathMatchingResourcePatternResolver - Looking for matching resources in jar file [file:/Users/huajuan/develop_tool/wq_repository/com/fasterxml/jackson/core/jackson-core/2.9.6/jackson-core-2.9.6.jar]
18:51:12.679 [main] DEBUG org.springframework.core.io.support.PathMatchingResourcePatternResolver - Looking for matching resources in jar file [file:/Users/huajuan/develop_tool/wq_repository/com/fasterxml/jackson/datatype/jackson-datatype-jdk8/2.9.6/jackson-datatype-jdk8-2.9.6.jar]
18:51:12.680 [main] DEBUG org.springframework.core.io.support.PathMatchingResourcePatternResolver - Looking for matching resources in jar file [file:/Users/huajuan/develop_tool/wq_repository/com/fasterxml/jackson/datatype/jackson-datatype-jsr310/2.9.6/jackson-datatype-jsr310-2.9.6.jar]
18:51:12.681 [main] DEBUG org.springframework.core.io.support.PathMatchingResourcePatternResolver - Looking for matching resources in jar file [file:/Users/huajuan/develop_tool/wq_repository/com/fasterxml/jackson/module/jackson-module-parameter-names/2.9.6/jackson-module-parameter-names-2.9.6.jar]
18:51:12.681 [main] DEBUG org.springframework.core.io.support.PathMatchingResourcePatternResolver - Looking for matching resources in jar file [file:/Users/huajuan/develop_tool/wq_repository/com/fasterxml/classmate/1.3.4/classmate-1.3.4.jar]
18:51:12.682 [main] DEBUG org.springframework.core.io.support.PathMatchingResourcePatternResolver - Looking for matching resources in jar file [file:/Users/huajuan/develop_tool/wq_repository/mysql/mysql-connector-java/8.0.15/mysql-connector-java-8.0.15.jar]
18:51:12.695 [main] DEBUG org.springframework.core.io.support.PathMatchingResourcePatternResolver - Looking for matching resources in jar file [file:/Users/huajuan/develop_tool/wq_repository/com/google/protobuf/protobuf-java/3.6.1/protobuf-java-3.6.1.jar]
18:51:12.700 [main] DEBUG org.springframework.core.io.support.PathMatchingResourcePatternResolver - Looking for matching resources in jar file [file:/Users/huajuan/develop_tool/wq_repository/com/jayway/jsonpath/json-path/2.4.0/json-path-2.4.0.jar]
18:51:12.702 [main] DEBUG org.springframework.core.io.support.PathMatchingResourcePatternResolver - Looking for matching resources in jar file [file:/Users/huajuan/develop_tool/wq_repository/com/jcraft/jsch/0.1.54/jsch-0.1.54.jar]
18:51:12.703 [main] DEBUG org.springframework.core.io.support.PathMatchingResourcePatternResolver - Looking for matching resources in jar file [file:/Users/huajuan/develop_tool/wq_repository/com/mchange/mchange-commons-java/0.2.11/mchange-commons-java-0.2.11.jar]
18:51:12.709 [main] DEBUG org.springframework.core.io.support.PathMatchingResourcePatternResolver - Looking for matching resources in jar file [file:/Users/huajuan/develop_tool/wq_repository/org/projectlombok/lombok/1.16.22/lombok-1.16.22.jar]
18:51:12.711 [main] DEBUG org.springframework.core.io.support.PathMatchingResourcePatternResolver - Looking for matching resources in jar file [file:/Users/huajuan/develop_tool/wq_repository/com/sun/mail/javax.mail/1.5.6/javax.mail-1.5.6.jar]
18:51:12.714 [main] DEBUG org.springframework.core.io.support.PathMatchingResourcePatternResolver - Looking for matching resources in jar file [file:/Users/huajuan/develop_tool/wq_repository/javax/activation/activation/1.1/activation-1.1.jar]
18:51:12.714 [main] DEBUG org.springframework.core.io.support.PathMatchingResourcePatternResolver - Resolved location pattern [classpath*:com/*.class] to resources []
]]></system-out>
  </testcase>
</testsuite>