/Users/huajuan/program/code/wq_rb_code/reg_sub/springBoot_Mybatis/Springboot_Mybatis/src/test/java/com/example/demo/basic/FeedBackTest.java
/Users/huajuan/program/code/wq_rb_code/reg_sub/springBoot_Mybatis/Springboot_Mybatis/src/test/java/com/example/demo/basic/BasicDataTest.java
/Users/huajuan/program/code/wq_rb_code/reg_sub/springBoot_Mybatis/Springboot_Mybatis/src/test/java/com/example/demo/basic/ErrorData.java
/Users/huajuan/program/code/wq_rb_code/reg_sub/springBoot_Mybatis/Springboot_Mybatis/src/test/java/com/example/demo/DemoApplicationTests.java
/Users/huajuan/program/code/wq_rb_code/reg_sub/springBoot_Mybatis/Springboot_Mybatis/src/test/java/com/example/demo/basic/NotifyDataTest.java
